{
    "collection": {
        "url": "/api/models?sort=id&direction=asc",
        "count": 20,
        "total": 1158,
        "pages": 58,
        "next": "/api/models?page=2&amp;sort=id&amp;direction=asc",
        "prev": "",
        "first": "/api/models?sort=id&direction=asc",
        "last": "/api/models?page=58&amp;sort=id&amp;direction=asc"
    },
    "data": [
        {
            "id": 1,
            "make_id": 1,
            "name": "******* (hidden)",
            "__message": "NOTE: Data is limited to `2020` for non-paying users. Search for 2020 vehicles or subscribe to unlock this data."
        },
        {
            "id": 2,
            "make_id": 1,
            "name": "*** (hidden)",
            "__message": "NOTE: Data is limited to `2020` for non-paying users. Search for 2020 vehicles or subscribe to unlock this data."
        },
        {
            "id": 3,
            "make_id": 2,
            "name": "** (hidden)",
            "__message": "NOTE: Data is limited to `2020` for non-paying users. Search for 2020 vehicles or subscribe to unlock this data."
        },
        {
            "id": 4,
            "make_id": 2,
            "name": "****** (hidden)",
            "__message": "NOTE: Data is limited to `2020` for non-paying users. Search for 2020 vehicles or subscribe to unlock this data."
        },
        {
            "id": 5,
            "make_id": 2,
            "name": "******** (hidden)",
            "__message": "NOTE: Data is limited to `2020` for non-paying users. Search for 2020 vehicles or subscribe to unlock this data."
        },
        {
            "id": 6,
            "make_id": 2,
            "name": "** (hidden)",
            "__message": "NOTE: Data is limited to `2020` for non-paying users. Search for 2020 vehicles or subscribe to unlock this data."
        },
        {
            "id": 7,
            "make_id": 2,
            "name": "** (hidden)",
            "__message": "NOTE: Data is limited to `2020` for non-paying users. Search for 2020 vehicles or subscribe to unlock this data."
        },
        {
            "id": 8,
            "make_id": 2,
            "name": "** (hidden)",
            "__message": "NOTE: Data is limited to `2020` for non-paying users. Search for 2020 vehicles or subscribe to unlock this data."
        },
        {
            "id": 9,
            "make_id": 3,
            "name": "******** (hidden)",
            "__message": "NOTE: Data is limited to `2020` for non-paying users. Search for 2020 vehicles or subscribe to unlock this data."
        },
        {
            "id": 10,
            "make_id": 3,
            "name": "******** (hidden)",
            "__message": "NOTE: Data is limited to `2020` for non-paying users. Search for 2020 vehicles or subscribe to unlock this data."
        },
        {
            "id": 11,
            "make_id": 3,
            "name": "******************* (hidden)",
            "__message": "NOTE: Data is limited to `2020` for non-paying users. Search for 2020 vehicles or subscribe to unlock this data."
        },
        {
            "id": 12,
            "make_id": 3,
            "name": "******** (hidden)",
            "__message": "NOTE: Data is limited to `2020` for non-paying users. Search for 2020 vehicles or subscribe to unlock this data."
        },
        {
            "id": 13,
            "make_id": 3,
            "name": "******************* (hidden)",
            "__message": "NOTE: Data is limited to `2020` for non-paying users. Search for 2020 vehicles or subscribe to unlock this data."
        },
        {
            "id": 14,
            "make_id": 3,
            "name": "******************** (hidden)",
            "__message": "NOTE: Data is limited to `2020` for non-paying users. Search for 2020 vehicles or subscribe to unlock this data."
        },
        {
            "id": 15,
            "make_id": 3,
            "name": "** (hidden)",
            "__message": "NOTE: Data is limited to `2020` for non-paying users. Search for 2020 vehicles or subscribe to unlock this data."
        },
        {
            "id": 16,
            "make_id": 3,
            "name": "** (hidden)",
            "__message": "NOTE: Data is limited to `2020` for non-paying users. Search for 2020 vehicles or subscribe to unlock this data."
        },
        {
            "id": 17,
            "make_id": 4,
            "name": "******* (hidden)",
            "__message": "NOTE: Data is limited to `2020` for non-paying users. Search for 2020 vehicles or subscribe to unlock this data."
        },
        {
            "id": 18,
            "make_id": 4,
            "name": "********* (hidden)",
            "__message": "NOTE: Data is limited to `2020` for non-paying users. Search for 2020 vehicles or subscribe to unlock this data."
        },
        {
            "id": 19,
            "make_id": 4,
            "name": "******** (hidden)",
            "__message": "NOTE: Data is limited to `2020` for non-paying users. Search for 2020 vehicles or subscribe to unlock this data."
        },
        {
            "id": 20,
            "make_id": 5,
            "name": "*** (hidden)",
            "__message": "NOTE: Data is limited to `2020` for non-paying users. Search for 2020 vehicles or subscribe to unlock this data."
        }
    ]
}